
WML

Website META Language ($B%&%'%V%5%$%H%a%?8@8l(B)
http://www.engelschall.com/sw/wml/
Consistent Look & Feel ($B0l4S$7$?%k%C%/%"%s%I%U%#!<%k(B)
Adding headers and footers ($B%X%C%@$d%U%C%?$NDI2C(B)
Adding a menu bar ($B%a%K%e!<%P!<$NDI2C(B)
Embedding ($BKd$a9~$_(B)
General information ($B0lHLE*$J>pJs(B)
Items of News and Security Alerts ($B%K%e!<%9$d%;%-%e%j%F%#!<7Y9p$N9`L\(B)
Translation check ($BK]Lu$N%A%'%C%/(B)
Using CVS revision of original documentation ($B86J8$N(B CVS $B%j%S%8%g%s$rMxMQ(B)
Warning for outdated pages ($B8E$$%Z!<%8$X$N7Y9p(B)

