
Internationalization ($B9q:]2=(B)

German ($B%I%$%D8l(B)
Greek ($B%.%j%7%c8l(B)
Hungarian ($B%O%s%,%j!<8l(B)
Indonesian ($B%$%s%I%M%7%"8l(B)
Italian ($B%$%?%j%"8l(B)
Japanese ($BF|K\8l(B)
Korean ($B4Z9q8l(B)
Norwegian ($B%N%k%&%'!<8l(B)
Polish ($B%]!<%i%s%I8l(B)
Portuguese ($B%]%k%H%,%k8l(B)
Romenian ($B%m!<%^8l(B)
Russian ($B%m%7%"8l(B)
Spanish ($B%9%Z%$%s8l(B)
Swedish ($B%9%&%'!<%G%s8l(B)
Turkish ($B%H%k%38l(B)



