
Debian$B$K$*$1$k%i%$%;%s%9(B

$B!V%U%j!<%=%U%H%&%'%"!W(B (Free Software)
DFSG (Debian Free Software Guidelines)
$B<+M3$J:FG[I[(B
$B%=!<%9%3!<%I$,4^$^$l$F$$$k(B
$BGI@8J*$N5v2D(B
$BCx:n<T$N%=!<%9%3!<%I$N0];}(B
$B8D?M$dCDBN$KBP$9$k@)8B$,$J$$(B
$B;HMQJ,Ln$KBP$9$k@)8B$,$J$$(B
$B%i%$%;%s%9$NG[I[(B
Debian$B8GM-$G$O$J$$%i%$%;%s%9(B
$B%i%$%;%s%9$O$[$+$N%=%U%H%&%'%"$rG{$i$J$$(B
$BNc(B:GPL, BSD, Artistic

