
$B:#8e$N3hF0(B

$B9q:]2=$K$`$1$F(B
JP Packages$B$r$b$C$H(BDebian$B$X(B
Debian Packages$B$N(Bi18n$B2=$N:n6H(B 
i18n$B%Q%C%A$O%^!<%8(B
$B4{B8$N8D!9$N%Q%C%1!<%8$NF|K\8lBP1~(B
Debian i18n infrastructure $B$r9M$($k(B
Description$B$rJl9q8l$G(B
Package$B$N@_Dj$rJl9q8l$G(B(debconf templates)
$BJl9q8l$K$h$kJ,;6(B Bug Tracking System

