
glibc on sarge (1)

glibc 2.3 $B$X$N0\9T(B: $B?'!9LdBj$,(B...

glibc 2.2.9x $B$,$^$@%P%.!<(B
libc $B$+$i(B db1 $B:o=|(B ($B$$$^$O(B db1 $B$O(B compat $B%i%$%V%i%j$G%+%P!<(B)
gcc 3.2 $B$X$N0\9T(B
gcc 3.2 $B$,%P%.!<(B
C++ $B$NNc30%O%s%I%iJQ99$K$h$k8_49@-LdBj(B
$BA}$(B3$1$k%"!<%-%F%/%A%c%Q%C%1!<%8(B
-opt ($B:GE,2=(B) $B$,(B i586, i686, sparcv9, ...
SH $B$,(B4$B<oN`(B, $BB>$K$b$^$@A}$($=$&$J@*$$(B

