
potato$B$N%[%C%H%H%T%C%/(B

$B05E]E*$J%Q%C%1!<%8?t(B
4,000 $B8D0J>e$N%Q%C%1!<%8(B
$B%U%!%C%H%Q%C%1!<%8$N%b%8%e!<%k2=(B ($BMQES$K9g$o$;$F87A*2DG=(B)

$BB?$/$NF|K\8lBP1~%Q%C%1!<%8(B
jLaTeX / FreeWnn / Mule / etc...
