
$B$$$D$G$k$N$+(B?

`So, uh, how long is this gonna take?'  `You can't rush art.'
$B?7$7$$%$%s%9%H!<%i$NF0:n3NG'(B
Release Critical Bug$B$N=$@5(B
$B%I%-%e%a%s%F!<%7%g%s(B
CD/DVD$B%$%a!<%8(B
$B$9$G$K%Q%C%1!<%8%"%C%W%m!<%I$O(BFreeze

Release Manager, Anthony Towns$B$NH=CG$^$A(B?
$B%$%Y%s%H$GH/I=$J$N$+(B?
LinuxTug? 6$B7n(B6$BF|!A(B9$BF|(B
Debian Conference? 7$B7n(B5$BF|!A(B7$BF|(B


`It's too late, Woody. That silly Buzz Lightweight can't help you'
