
$B$I$l$GF0$/(B? $B!A(B $B%"!<%-%F%/%A%c(B

`Oh! Hey, look at us! We're a complete set!'
$B:G$bB?$/$N%"!<%-%F%/%A%c$r%5%]!<%H$7$?(BLinux$B%G%#%9%H%j%S%e!<%7%g%s(B
potato$B$N:"$+$i(B
i386,alpha,m68k,arm,powerpc,sparc
woody$B$G?75,(B
mips, mipsel, ia64, hppa, s390
$B3+H/Cf(B?
superh$B7O!"(BHurd
$B$d$j$?$$?M$,$$$l$P$$$$(B
$B4k6H7O(Bdistro$B$G$O%3%9%HLdBj$G%5%]!<%HBP>]$,$"$^$jA}$($J$$$N$H$OBP>HE*(B
$B:#$N$H$3$m==J,%5%]!<%H$G$-$kBN@)(B
build daemon
security updates
archive size, mirror

`All together, Now!'

