
$B35MW(B

`It's show time! And now, the main attraction.'
Woody$B$H$O(B?
$BC/$,:n$C$F$$$k$N$+!"$=$NL\E*!"B>$H$N0c$$(B
$B$I$&$$$&$b$N(B?
Woody$B$NFbMF!"%3%s%]!<%M%s%H(B
$B$I$l$GF0$/(B?
Woody$B$,BP>]$H$7$F$$$k%"!<%-%F%/%A%c(B
$B8=>u$O(B?
Woody$B$N8=>u(B
$B$$$D$G$k$N(B?
Woody$B$NM=Dj(B
$B:#8e$O(B?
Woody$B$N<!(B?

`Let's go everyone'

