
$B%=!<%9%Q%C%1!<%8$N9=B$(B

dsc (Debian Source Control)
$B%=!<%9$KI,MW$J%U%!%$%k$N>pJs(B
PGP $B$^$?$O(B GPG $B$G=pL>(B
Debian $B%M%$%F%#%V$J%=%U%H%&%'%"(B
.tar.gz
Upstream $B$N$"$k%=%U%H%&%'%"(B
.orig.tar.gz ($B%*%j%8%J%k$N%=%U%H%&%'%"(B)
.diff.gz (Debian $B%Q%C%1!<%8$K$9$k$?$a$N:9J,%U%!%$%k(B)
