
changelog $B%U%!%$%k(B

$B%Q%C%1!<%8$NJQ99MzNr(B

foo (1.1-1) unstable; urgency=low

$B%Q%C%1!<%8%P!<%8%g%s(B / $B%j%S%8%g%s$N7hDj(B
Debian $B%M%$%F%#%V(B: <$B%P!<%8%g%s(B>
upstream $B$"$j(B: <$B%P!<%8%g%s(B>-<$B%j%S%8%g%s(B>
$B%P!<%8%g%s(B / $B%j%S%8%g%s$NIU$1J}$KCm0U(B
$B%G%#%9%H%j%S%e!<%7%g%s$N7hDj(B
$BBP>]$H$9$k%G%#%9%H%j%S%e!<%7%g%s%P!<%8%g%s$r;XDj(B
unstable (Debian $B3+H/HG(B) / stable (Debian $B0BDjHG(B)
$B6[5^EY(B (urgency) $B$N7hDj(B
$B?<9o$J%P%0$N=$@5$J$I$N9pCN(B
low / medium / high
