$B%Q%C%1!<%84IM}(B
$B%Q%C%1!<%8$N>pJs(B

$B%Q%C%1!<%8$N>pJs(B
    % dpkg --info file.deb
    % rpm -qpi file.rpm

$B%Q%C%1!<%8$K4^$^$l$F$$$k%U%!%$%k0lMw(B
    % dpkg --contents file.deb
    % rpm -qpl file.rpm

