$B%Q%C%1!<%84IM}(B
$B%Q%C%1!<%8$H$O(B?

$B%=%U%H%&%'%"$r$^$H$a$F07$($k$h$&$K$7$?$b$N(B
$B%$%s%9%H!<%k(B/$B%"%s%$%s%9%H!<%k$,4JC1$K(B
$B%$%s%9%H!<%k;~$N@_Dj(B
$B%Q%C%1!<%8$K4X$9$k>pJs(B
$B0MB84X78(B
$B%$%s%9%H!<%k$5$l$F$k%Q%C%1!<%8$N>pJs(B

