%!PS-Adobe-3.0 EPSF-3.0
%%BoundingBox: 26 580 530 829
%%Title: apt
%%CreationDate: Thu Oct 25 13:42:55 2001
%%Creator: Tgif-4.1.40 by William Chia-Wei Cheng (william@cs.UCLA.edu)
%%ProducedBy: (unknown)
%%Pages: 1
%%DocumentFonts: (atend)
%%EndComments
%%BeginProlog

/tgifdict 55 dict def
tgifdict begin

/tgifellipsedict 6 dict def
tgifellipsedict /mtrx matrix put

/TGEL % tgifellipse
 { tgifellipsedict begin
      /yrad exch def
      /xrad exch def
      /y exch def
      /x exch def
      /savematrix mtrx currentmatrix def
      x y translate
      xrad yrad scale
      0 0 1 0 360 arc
      savematrix setmatrix
   end
 } def

/tgifarrowtipdict 8 dict def
tgifarrowtipdict /mtrx matrix put

/TGAT % tgifarrowtip
 { tgifarrowtipdict begin
      /dy exch def
      /dx exch def
      /h exch def
      /w exch def
      /y exch def
      /x exch def
      /savematrix mtrx currentmatrix def
      x y translate
      dy dx atan rotate
      0 0 moveto
      w neg h lineto
      w neg h neg lineto
      savematrix setmatrix
   end
 } def

/TGMAX
 { exch dup 3 1 roll exch dup 3 1 roll gt { pop } { exch pop } ifelse
 } def
/TGMIN
 { exch dup 3 1 roll exch dup 3 1 roll lt { pop } { exch pop } ifelse
 } def
/TGSW { stringwidth pop } def

/bd { bind def } bind def

/GS { gsave } bd
/GR { grestore } bd
/NP { newpath } bd
/CP { closepath } bd
/CHP { charpath } bd
/CT { curveto } bd
/L { lineto } bd
/RL { rlineto } bd
/M { moveto } bd
/RM { rmoveto } bd
/S { stroke } bd
/F { fill } bd
/TR { translate } bd
/RO { rotate } bd
/SC { scale } bd
/MU { mul } bd
/DI { div } bd
/DU { dup } bd
/NE { neg } bd
/AD { add } bd
/SU { sub } bd
/PO { pop } bd
/EX { exch } bd
/CO { concat } bd
/CL { clip } bd
/EC { eoclip } bd
/EF { eofill } bd
/IM { image } bd
/IMM { imagemask } bd
/ARY { array } bd
/SG { setgray } bd
/RG { setrgbcolor } bd
/SD { setdash } bd
/W { setlinewidth } bd
/SM { setmiterlimit } bd
/SLC { setlinecap } bd
/SLJ { setlinejoin } bd
/SH { show } bd
/FF { findfont } bd
/MS { makefont setfont } bd
/AR { arcto 4 {pop} repeat } bd
/CURP { currentpoint } bd
/FLAT { flattenpath strokepath clip newpath } bd
/TGSM { tgiforigctm setmatrix } def
/TGRM { savematrix setmatrix } def

end

%%EndProlog
%%BeginSetup
%%EndSetup
%%Page: 1 1

%%PageBoundingBox: 26 580 530 829
tgifdict begin
/tgifsavedpage save def

1 SM
1 W

0 SG

72 0 MU 72 11.602 MU TR
72 128 DI 100.000 MU 100 DI DU NE SC

GS

/tgiforigctm matrix currentmatrix def

% OVAL
0 SG
GS
   GS
      NP 290 205 240 155 TGEL
      S
   GR
GR

% OVAL
0 SG
GS
   GS
      NP 490 50 20 20 TGEL
      S
   GR
GR

% POLY/OPEN-SPLINE
0 SG
GS
   NP
      450 80 M
      520 80 L
   TGSM
   1 W
   S
GR

% POLY/OPEN-SPLINE
0 SG
GS
   NP
      490 70 M
      490 100 L
      460 130 L
   TGSM
   1 W
   S
GR

% POLY/OPEN-SPLINE
0 SG
GS
   NP
      490 100 M
      520 130 L
   TGSM
   1 W
   S
GR

% TEXT
NP
0 SG
   GS
      1 W
      170 210 M
      GS
            0 SG
            /Courier FF [34 0 0 -34 0 0] MS
            (Debian System) SH
      GR
   GR

% TEXT
NP
0 SG
   GS
      1 W
      420 40 M
      GS
            0 SG
            /Courier FF [34 0 0 -34 0 0] MS
            (Mr. Dpkg) SH
      GR
   GR

% POLY/OPEN-SPLINE
0 SG
GS
   NP
      460 130 M
      -80 0 atan DU cos 10.000 MU 460 exch SU
      exch sin 10.000 MU 50 exch SU L
   TGSM
   2 W
   S
   1 W
GR
GS
   TGSM
   NP
      460 50 10.000 4.000 0 -80 TGAT
   1 SG CP F
   0 SG
   NP
      460 50 10.000 4.000 0 -80 TGAT
   CP F
GR

% OVAL
0 SG
GS
   GS
      NP 640 160 20 20 TGEL
      S
   GR
GR

% POLY/OPEN-SPLINE
0 SG
GS
   NP
      610 190 M
      670 190 L
   TGSM
   1 W
   S
GR

% POLY/OPEN-SPLINE
0 SG
GS
   NP
      640 180 M
      640 210 L
      610 240 L
   TGSM
   1 W
   S
GR

% POLY/OPEN-SPLINE
0 SG
GS
   NP
      640 210 M
      670 240 L
   TGSM
   1 W
   S
GR

% OVAL
0 SG
GS
   GS
      NP 720 220 20 20 TGEL
      S
   GR
GR

% POLY/OPEN-SPLINE
0 SG
GS
   NP
      690 250 M
      750 250 L
   TGSM
   1 W
   S
GR

% POLY/OPEN-SPLINE
0 SG
GS
   NP
      720 240 M
      720 270 L
      690 300 L
   TGSM
   1 W
   S
GR

% POLY/OPEN-SPLINE
0 SG
GS
   NP
      720 270 M
      750 300 L
   TGSM
   1 W
   S
GR

% OVAL
0 SG
GS
   GS
      NP 810 170 20 20 TGEL
      S
   GR
GR

% POLY/OPEN-SPLINE
0 SG
GS
   NP
      780 200 M
      840 200 L
   TGSM
   1 W
   S
GR

% POLY/OPEN-SPLINE
0 SG
GS
   NP
      810 190 M
      810 220 L
      780 250 L
   TGSM
   1 W
   S
GR

% POLY/OPEN-SPLINE
0 SG
GS
   NP
      810 220 M
      840 250 L
   TGSM
   1 W
   S
GR

% OVAL
0 SG
GS
   GS
      NP 820 320 20 20 TGEL
      S
   GR
GR

% POLY/OPEN-SPLINE
0 SG
GS
   NP
      790 350 M
      850 350 L
   TGSM
   1 W
   S
GR

% POLY/OPEN-SPLINE
0 SG
GS
   NP
      820 340 M
      820 370 L
      790 400 L
   TGSM
   1 W
   S
GR

% POLY/OPEN-SPLINE
0 SG
GS
   NP
      820 370 M
      850 400 L
   TGSM
   1 W
   S
GR

% OVAL
0 SG
GS
   GS
      NP 680 340 20 20 TGEL
      S
   GR
GR

% POLY/OPEN-SPLINE
0 SG
GS
   NP
      650 370 M
      710 370 L
   TGSM
   1 W
   S
GR

% POLY/OPEN-SPLINE
0 SG
GS
   NP
      680 360 M
      680 390 L
      650 420 L
   TGSM
   1 W
   S
GR

% POLY/OPEN-SPLINE
0 SG
GS
   NP
      680 390 M
      710 420 L
   TGSM
   1 W
   S
GR

% OVAL
0 SG
GS
   GS
      NP 720 50 20 20 TGEL
      S
   GR
GR

% POLY/OPEN-SPLINE
0 SG
GS
   NP
      700 80 M
      740 80 L
   TGSM
   1 W
   S
GR

% POLY/OPEN-SPLINE
0 SG
GS
   NP
      720 70 M
      720 100 L
      710 130 L
   TGSM
   1 W
   S
GR

% POLY/OPEN-SPLINE
0 SG
GS
   NP
      720 100 M
      730 130 L
   TGSM
   1 W
   S
GR

% TEXT
NP
0 SG
   GS
      1 W
      660 40 M
      GS
            0 SG
            /Courier FF [34 0 0 -34 0 0] MS
            (Ms APT) SH
      GR
   GR

% OVAL
0 SG
GS
   GS
      NP 740 275 180 175 TGEL
      [4 4] 0 SD
      S
   GR
GR

% TEXT
NP
0 SG
   GS
      1 W
      780 130 M
      GS
            0 SG
            /Courier FF [34 0 0 -34 0 0] MS
            (Packages) SH
      GR
   GR

% TEXT
NP
0 SG
   GS
      1 W
      660 130 M
      GS
            0 SG
            /Courier FF [34 0 0 -34 0 0] MS
            (1) SH
      GR
   GR

% TEXT
NP
0 SG
   GS
      1 W
      720 190 M
      GS
            0 SG
            /Courier FF [34 0 0 -34 0 0] MS
            (3) SH
      GR
   GR

% TEXT
NP
0 SG
   GS
      1 W
      650 310 M
      GS
            0 SG
            /Courier FF [34 0 0 -34 0 0] MS
            (2) SH
      GR
   GR

% TEXT
NP
0 SG
   GS
      1 W
      840 300 M
      GS
            0 SG
            /Courier FF [34 0 0 -34 0 0] MS
            (4) SH
      GR
   GR

% TEXT
NP
0 SG
   GS
      1 W
      840 180 M
      GS
            0 SG
            /Courier FF [34 0 0 -34 0 0] MS
            (5) SH
      GR
   GR

% OVAL
0 SG
GS
   GS
      NP 670 120 30 20 TGEL
      [2 2] 0 SD
      S
   GR
GR

% OVAL
0 SG
GS
   GS
      NP 730 180 20 20 TGEL
      [2 2] 0 SD
      S
   GR
GR

% OVAL
0 SG
GS
   GS
      NP 650 300 30 20 TGEL
      [2 2] 0 SD
      S
   GR
GR

% OVAL
0 SG
GS
   GS
      NP 850 170 20 20 TGEL
      [2 2] 0 SD
      S
   GR
GR

% OVAL
0 SG
GS
   GS
      NP 850 290 20 20 TGEL
      [2 2] 0 SD
      S
   GR
GR

% POLY/OPEN-SPLINE
0 SG
GS
   [2 2] 0 SD
   NP
      610 160 M
      603.33 120.00 590.00 100.00 570.00 100.00 CT
      550.00 100.00 510.00 123.33
      70 -90 atan DU cos 8.000 MU 450 exch SU
      exch sin 8.000 MU 170 exch SU CT
   TGSM
   1 W
   S
   [] 0 SD
GR
GS
   TGSM
   NP
      450 170 8.000 3.000 -90 70 TGAT
   1 SG CP F
   0 SG
   NP
      450 170 8.000 3.000 -90 70 TGAT
   CP F
GR

% TEXT
NP
0 SG
   GS
      1 W
      440 150 M
      GS
            0 SG
            /Courier FF [25 0 0 -25 0 0] MS
            (Resident) SH
      GR
      0 24 RM
      GS
            0 SG
            /Courier FF [25 0 0 -25 0 0] MS
            (Registration) SH
      GR
   GR

GR
tgifsavedpage restore
end
showpage

%%Trailer
%MatchingCreationDate: Thu Oct 25 13:42:55 2001
%%DocumentFonts: Courier
%%EOF
